{
	"commentStamp" : "",
	"super" : "Object",
	"category" : "DatabaseAccess-Model",
	"classinstvars" : [ ],
	"pools" : [ ],
	"classvars" : [ ],
	"instvars" : [
		"value",
		"isActivated",
		"ttl"
	],
	"name" : "Token",
	"type" : "normal"
}