{
	"commentStamp" : "",
	"super" : "DatabaseAccess",
	"category" : "DatabaseAccess-Model",
	"classinstvars" : [ ],
	"pools" : [ ],
	"classvars" : [ ],
	"instvars" : [
		"data",
		"currentId"
	],
	"name" : "DatabaseRealAccess",
	"type" : "normal"
}